{
  "name": "nrg-xnat",
  "version": "0.2.0",
  "author": "NRG",
  "summary": "Base module for XNAT deployment",
  "license": "Apache-2.0",
  "source": "https://bitbucket.org/NRGpuppet/puppet_module_xnat",
  "project_page": null,
  "issues_url": null,
  "operatingsystem_support": [
    {
    "operatingsystem":"RedHat",
    "operatingsystemrelease":[ "5", "6", "7" ]
    },
    {
    "operatingsystem": "CentOS",
    "operatingsystemrelease":[ "5", "6", "7" ]
    },
    {
    "operatingsystem": "Ubuntu",
    "operatingsystemrelease":[ "14", "15", "16", "17" ]
    }
  ],
  "dependencies": [
    {"name":"ghoneycutt-common","version_requirement":">= 1.5.0"},
    {"name":"puppetlabs-stdlib","version_requirement":">= 4.12.0"},
    {"name":"puppetlabs-tomcat","version_requirement":">= 1.5.0"},
    {"name":"puppetlabs-firewall","version_requirement":">= 1.7.2"},
    {"name":"puppetlabs-postgresql","version_requirement":">= 4.7.1"},
    {"name":"puppetlabs-apt","version_requirement":">= 2.1.1"},
    {"name":"puppetlabs-apache","version_requirement":">= 1.9.0"},
    {"name":"puppetlabs-vcsrepo","version_requirement":">= 1.3.1"},
    {"name":"puppetlabs-java","version_requirement":">= 1.5.0"},
    {"name":"maestrodev-wget","version_requirement":">= 1.7.2"},
    {"name":"garethr/docker","version_requirement": ">= 5.3.0"}
  ],
  "requirements": [
    {
      "name": "puppet",
      "version_requirement": ">=4.0.0 < 5.0.0"
    }
  ]
}
